
Fuji_distri.0.2.17.mhx	--> evolution protocole gestion du mdb

Fuji_distri.0.2.15.mhx	--> gestion du mdb


Fuji ...0.0.3.mhx  		--> gestion du bouton maintenance
  			       		--> devalidation du watchdog.
